<?xml version="1.0" encoding="UTF-8"?>
<svg width="52px" height="52px" viewBox="0 0 52 52" version="1.1" xmlns="http://www.w3.org/2000/svg" xmlns:xlink="http://www.w3.org/1999/xlink">
    <title>编组 55</title>
    <defs>
        <linearGradient x1="50%" y1="0%" x2="50%" y2="100%" id="linearGradient-1">
            <stop stop-color="#87BDFF" offset="0%"></stop>
            <stop stop-color="#4F88FF" offset="100%"></stop>
        </linearGradient>
    </defs>
    <g id="页面-1" stroke="none" stroke-width="1" fill="none" fill-rule="evenodd">
        <g id="割草机saas" transform="translate(-1780.000000, -763.000000)">
            <g id="编组-55" transform="translate(1781.000000, 764.000000)">
                <circle id="椭圆形备份-24" stroke="#80A9FD" fill-opacity="0.67" fill="#30516E" cx="25" cy="25" r="25"></circle>
                <path d="M37.5,10.7954545 C38.1275963,10.7954545 38.6363636,11.3042219 38.6363636,11.9318182 C38.6363636,12.5145862 38.1976816,12.9948945 37.632524,13.0605367 L37.5,13.0681818 L24.5026364,13.0674545 L29.588148,17.5445138 L25.5676364,17.5444545 L25.5676364,31.2734545 L29.588148,31.2739148 L24.4516364,35.7944545 L37.5,35.7954545 C38.1275963,35.7954545 38.6363636,36.3042219 38.6363636,36.9318182 C38.6363636,37.5145862 38.1976816,37.9948945 37.632524,38.0605367 L37.5,38.0681818 L12.5,38.0681818 C11.8724037,38.0681818 11.3636364,37.5594145 11.3636364,36.9318182 C11.3636364,36.3490502 11.8023184,35.8687419 12.367476,35.8030997 L12.5,35.7954545 L24.3976364,35.7944545 L19.362859,31.2739148 L23.2946364,31.2734545 L23.2946364,17.5444545 L19.362859,17.5445138 L24.3476364,13.0674545 L12.5,13.0681818 C11.8724037,13.0681818 11.3636364,12.5594145 11.3636364,11.9318182 C11.3636364,11.3490502 11.8023184,10.8687419 12.367476,10.8030997 L12.5,10.7954545 L37.5,10.7954545 Z" id="形状结合" fill="url(#linearGradient-1)" fill-rule="nonzero"></path>
            </g>
        </g>
    </g>
</svg>