<?xml version="1.0" encoding="UTF-8"?>
<svg width="20px" height="20px" viewBox="0 0 20 20" version="1.1" xmlns="http://www.w3.org/2000/svg" xmlns:xlink="http://www.w3.org/1999/xlink">
    <title>xuanzeqi</title>
    <g id="saas-v1.0.1" stroke="none" stroke-width="1" fill="none" fill-rule="evenodd">
        <g id="首页1-三天天气" transform="translate(-419.000000, -129.000000)" fill="#FFFFFF" fill-rule="nonzero">
            <g id="xuanzeqi" transform="translate(419.000000, 129.000000)">
                <path d="M10.2668927,20 L2.93565894,20 C1.31433928,20 0,18.687197 0,17.0677725 L0,2.93222753 C0,1.31280298 1.31433928,0 2.93565894,0 L17.0643411,0 C18.6856607,0 20,1.31280298 20,2.93222753 L20,10.2782694 C20,10.7698805 19.6010041,11.1684099 19.1088178,11.1684099 C18.8740364,11.1684568 18.6491156,11.0741213 18.4847519,10.9066662 C18.3203882,10.7392112 18.2304142,10.5127295 18.2351098,10.2782694 L18.2351098,2.93222753 C18.22556,2.29321194 17.7041757,1.78020981 17.0643411,1.780281 L2.93565894,1.780281 C2.29871193,1.780281 1.78236436,2.29602503 1.78236436,2.93222753 L1.78236436,17.0677725 C1.77759902,17.3747221 1.89757564,17.6704979 2.11490193,17.8875701 C2.33222821,18.1046424 2.6283501,18.2244788 2.93565894,18.219719 L10.2668927,18.219719 C10.6830577,18.3032694 10.9824617,18.6684136 10.9824617,19.0924058 C10.9824617,19.516398 10.6830577,19.8815422 10.2668927,19.9650925 L10.2668927,20 Z" id="路径"></path>
                <path d="M12.7942904,16.8758177 L11.8436818,11.0061408 C11.8211751,10.8378948 11.8920415,10.6705992 12.0307004,10.5646422 C12.1693593,10.4586852 12.3557865,10.4293684 12.522688,10.4872744 L18.3281908,12.6438131 C18.493278,12.705981 18.6105604,12.8482066 18.6351639,13.016072 C18.6597675,13.1839374 18.5878838,13.3514597 18.4470169,13.454542 L13.5921227,17.1676801 C13.4554413,17.2743169 13.2694571,17.302908 13.1046504,17.2426185 C12.9398438,17.1823291 12.8214329,17.0423844 12.7942904,16.8758177 Z" id="路径"></path>
                <path d="M19.2278171,19.9996556 C18.9782467,20.0071577 18.7390746,19.8917558 18.577928,19.6860805 L13.4472243,13.414579 C13.1171109,13.0434722 13.1171109,12.4576032 13.4472243,12.0864964 C13.7855321,11.7327407 14.3231831,11.7327407 14.6614909,12.0864964 L19.7921945,18.3579979 C20.0995477,18.753433 20.0617635,19.3402608 19.7066828,19.6860805 C19.5810142,19.8415601 19.4136918,19.9511276 19.2278171,19.9996556 L19.2278171,19.9996556 Z" id="路径"></path>
            </g>
        </g>
    </g>
</svg>