<?xml version="1.0" encoding="UTF-8"?>
<svg width="52px" height="52px" viewBox="0 0 52 52" version="1.1" xmlns="http://www.w3.org/2000/svg" xmlns:xlink="http://www.w3.org/1999/xlink">
    <title>编组 56</title>
    <defs>
        <linearGradient x1="50%" y1="0%" x2="50%" y2="100%" id="linearGradient-1">
            <stop stop-color="#87BDFF" offset="0%"></stop>
            <stop stop-color="#4F88FF" offset="100%"></stop>
        </linearGradient>
    </defs>
    <g id="页面-1" stroke="none" stroke-width="1" fill="none" fill-rule="evenodd">
        <g id="割草机saas" transform="translate(-1512.000000, -908.000000)">
            <g id="编组-56" transform="translate(1513.000000, 909.000000)">
                <circle id="椭圆形备份-25" stroke="#80A9FD" fill-opacity="0.67" fill="#30516E" cx="25" cy="25" r="25"></circle>
                <path d="M20.8272727,33.7681818 C21.325,33.7681818 21.7204545,33.8772727 22.0068182,34.1022727 C22.3068182,34.3477273 22.4636364,34.7022727 22.4636364,35.1659091 C22.4636364,35.4181818 22.3954545,35.6431818 22.2590909,35.8409091 C22.1090909,36.0590909 21.8977273,36.2022727 21.6386364,36.2704545 L21.6386364,36.2704545 L21.6386364,36.2840909 C22.0613636,36.3795455 22.3,36.6590909 22.3545455,37.1363636 L22.3545455,37.1363636 L22.4363636,37.9204545 C22.4636364,38.2204545 22.5659091,38.4590909 22.7295455,38.6363636 L22.7295455,38.6363636 L21.8636364,38.6363636 C21.7477273,38.4863636 21.6795455,38.275 21.6522727,38.0022727 L21.6522727,38.0022727 L21.5909091,37.4022727 C21.5636364,37.1363636 21.4818182,36.9454545 21.3454545,36.8295455 C21.2022727,36.7068182 20.9909091,36.6522727 20.7181818,36.6522727 L20.7181818,36.6522727 L19.4568182,36.6522727 L19.4568182,38.6363636 L18.6590909,38.6363636 L18.6590909,33.7681818 Z M27.025,33.7681818 L27.025,34.45 L25.4295455,34.45 L25.4295455,38.6363636 L24.6318182,38.6363636 L24.6318182,34.45 L23.0363636,34.45 L23.0363636,33.7681818 L27.025,33.7681818 Z M28.4022727,33.7681818 L28.4022727,36.0659091 L30.6659091,33.7681818 L31.675,33.7681818 L29.5340909,35.8545455 L31.9954545,38.6363636 L30.9181818,38.6363636 L28.9954545,36.3795455 L28.4022727,36.9590909 L28.4022727,38.6363636 L27.6045455,38.6363636 L27.6045455,33.7681818 L28.4022727,33.7681818 Z M20.7181818,34.45 L19.4568182,34.45 L19.4568182,35.9704545 L20.7181818,35.9704545 C21.0318182,35.9704545 21.2704545,35.9022727 21.4340909,35.7727273 C21.5840909,35.6363636 21.6590909,35.4454545 21.6590909,35.2 C21.6590909,34.9340909 21.5840909,34.7431818 21.4340909,34.6272727 C21.2840909,34.5045455 21.0454545,34.45 20.7181818,34.45 L20.7181818,34.45 Z M32.2662399,28.926081 C32.7100175,29.3698586 32.7100175,30.0893643 32.2662399,30.5331419 C31.8224623,30.9769195 31.1029566,30.9769195 30.659179,30.5331419 C27.2199026,27.0938654 21.6437338,27.0938654 18.2044573,30.5331419 C17.7606797,30.9769195 17.0411741,30.9769195 16.5973965,30.5331419 C16.1536189,30.0893643 16.1536189,29.3698586 16.5973965,28.926081 C20.9242281,24.5992494 27.9394083,24.5992494 32.2662399,28.926081 Z M37.1878638,24.0044571 C37.6316414,24.4482347 37.6316414,25.1677404 37.1878638,25.611518 C36.7440862,26.0552956 36.0245805,26.0552956 35.5808029,25.611518 C29.4233887,19.4541037 19.4402477,19.4541037 13.2828334,25.611518 C12.8390558,26.0552956 12.1195502,26.0552956 11.6757726,25.611518 C11.231995,25.1677404 11.231995,24.4482347 11.6757726,24.0044571 C18.720742,16.9594876 30.1428943,16.9594876 37.1878638,24.0044571 Z M42.1094877,19.0828332 C42.5532653,19.5266108 42.5532653,20.2461165 42.1094877,20.6898941 C41.6657101,21.1336717 40.9462044,21.1336717 40.5024268,20.6898941 C31.6268748,11.814342 17.2367616,11.814342 8.36120952,20.6898941 C7.91743191,21.1336717 7.19792626,21.1336717 6.75414865,20.6898941 C6.31037105,20.2461165 6.31037105,19.5266108 6.75414865,19.0828332 C16.5172559,9.31972591 32.3463804,9.31972591 42.1094877,19.0828332 Z" id="形状结合" fill="url(#linearGradient-1)" fill-rule="nonzero"></path>
            </g>
        </g>
    </g>
</svg>